<?xml version="1.0" encoding="UTF-8" standalone="no"?>
<svg
   xmlns:dc="http://purl.org/dc/elements/1.1/"
   xmlns:cc="http://creativecommons.org/ns#"
   xmlns:rdf="http://www.w3.org/1999/02/22-rdf-syntax-ns#"
   xmlns:svg="http://www.w3.org/2000/svg"
   xmlns="http://www.w3.org/2000/svg"
   xmlns:sodipodi="http://sodipodi.sourceforge.net/DTD/sodipodi-0.dtd"
   xmlns:inkscape="http://www.inkscape.org/namespaces/inkscape"
   width="178.71127pt"
   height="44.334728pt"
   viewBox="0 0 178.71127 44.334728"
   version="1.1"
   id="svg2"
   inkscape:version="0.91 r13725"
   sodipodi:docname="BG_preparation_encoding_estimation.svg">
  <metadata
     id="metadata100">
    <rdf:RDF>
      <cc:Work
         rdf:about="">
        <dc:format>image/svg+xml</dc:format>
        <dc:type
           rdf:resource="http://purl.org/dc/dcmitype/StillImage" />
        <dc:title></dc:title>
      </cc:Work>
    </rdf:RDF>
  </metadata>
  <sodipodi:namedview
     pagecolor="#ffffff"
     bordercolor="#666666"
     borderopacity="1"
     objecttolerance="10"
     gridtolerance="10"
     guidetolerance="10"
     inkscape:pageopacity="0"
     inkscape:pageshadow="2"
     inkscape:window-width="1920"
     inkscape:window-height="1016"
     id="namedview98"
     showgrid="false"
     fit-margin-top="5"
     fit-margin-left="5"
     fit-margin-right="5"
     fit-margin-bottom="5"
     inkscape:zoom="4.7811639"
     inkscape:cx="91.911855"
     inkscape:cy="26.346015"
     inkscape:window-x="0"
     inkscape:window-y="27"
     inkscape:window-maximized="1"
     inkscape:current-layer="surface637" />
  <defs
     id="defs4">
    <clipPath
       id="clip1">
      <path
         d="m 5,6.078125 33.410156,0 0,32.332031 -33.410156,0 z m 0,0"
         id="path7"
         inkscape:connector-curvature="0" />
    </clipPath>
    <clipPath
       id="clip2">
      <path
         d="m 97.683594,6.078125 33.410156,0 0,32.332031 -33.410156,0 z m 0,0"
         id="path10"
         inkscape:connector-curvature="0" />
    </clipPath>
    <clipPath
       id="clip3">
      <path
         d="m 136.48047,5 19.9375,0 0,34.507812 -19.9375,0 z m 0,0"
         id="path13"
         inkscape:connector-curvature="0" />
    </clipPath>
    <clipPath
       id="clip4">
      <path
         d="m 155.87891,11 15.51953,0 0,22.558594 -15.51953,0 z m 0,0"
         id="path16"
         inkscape:connector-curvature="0" />
    </clipPath>
    <clipPath
       id="clip5">
      <path
         d="M 17.382812,19 23,19 l 0,7.589844 -5.617188,0 z m 0,0"
         id="path19"
         inkscape:connector-curvature="0" />
    </clipPath>
    <clipPath
       id="clip6">
      <path
         d="M 61.382812,20.625 65,20.625 65,26 61.382812,26 Z m 0,0"
         id="path22"
         inkscape:connector-curvature="0" />
    </clipPath>
    <clipPath
       id="clip7">
      <path
         d="M 73.382812,19 79,19 l 0,7.589844 -5.617188,0 z m 0,0"
         id="path25"
         inkscape:connector-curvature="0" />
    </clipPath>
    <clipPath
       id="clip8">
      <path
         d="M 107.18359,19 114,19 l 0,7.589844 -6.81641,0 z m 0,0"
         id="path28"
         inkscape:connector-curvature="0" />
    </clipPath>
    <clipPath
       id="clip9">
      <path
         d="m 114,20.625 4,0 0,5.375 -4,0 z m 0,0"
         id="path31"
         inkscape:connector-curvature="0" />
    </clipPath>
    <clipPath
       id="clip10">
      <path
         d="m 138.13281,16.625 3,0 0,9.964844 -3,0 z m 0,0"
         id="path34"
         inkscape:connector-curvature="0" />
    </clipPath>
    <clipPath
       id="clip11">
      <path
         d="m 151.13281,16.625 3.81641,0 0,9.964844 -3.81641,0 z m 0,0"
         id="path37"
         inkscape:connector-curvature="0" />
    </clipPath>
  </defs>
  <g
     id="surface637"
     transform="translate(-0.02968799,-0.0845908)">
    <path
       style="fill:#b0e3ff;fill-opacity:1;fill-rule:nonzero;stroke:#000000;stroke-width:0.80000001;stroke-linecap:butt;stroke-linejoin:miter;stroke-miterlimit:4;stroke-dasharray:none;stroke-opacity:1"
       d="m 44.144531,-5.507812 47.589844,0 0,-33.492188 -47.589844,0 z m 0,0"
       transform="scale(1,-1)"
       id="path40"
       inkscape:connector-curvature="0" />
    <path
       style="fill:#fffdb0;fill-opacity:1;fill-rule:evenodd;stroke:none"
       d="m 22.675781,30.875 0,6.464844 15.085938,-15.085938 -15.085938,-15.089844 0,6.46875 -17.246093,0 0,17.242188 z m 0,0"
       id="path42"
       inkscape:connector-curvature="0" />
    <g
       clip-path="url(#clip1)"
       id="g44"
       style="clip-rule:nonzero;stroke-width:0.80000001;stroke-miterlimit:4;stroke-dasharray:none">
      <path
         style="fill:none;stroke:#000000;stroke-width:0.80000001;stroke-linecap:butt;stroke-linejoin:miter;stroke-miterlimit:4;stroke-dasharray:none;stroke-opacity:1"
         d="m 22.675781,-30.875 0,-6.464844 15.085938,15.085938 -15.085938,15.089844 0,-6.46875 -17.246093,0 0,-17.242188 z m 0,0"
         transform="scale(1,-1)"
         id="path46"
         inkscape:connector-curvature="0" />
    </g>
    <path
       style="fill:#b0e3ff;fill-opacity:1;fill-rule:evenodd;stroke:none"
       d="m 115.35938,30.875 0,6.464844 15.08593,-15.085938 -15.08593,-15.089844 0,6.46875 -17.246099,0 0,17.242188 z m 0,0"
       id="path48"
       inkscape:connector-curvature="0" />
    <g
       clip-path="url(#clip2)"
       id="g50"
       style="clip-rule:nonzero;stroke-width:0.80000001;stroke-miterlimit:4;stroke-dasharray:none">
      <path
         style="fill:none;stroke:#000000;stroke-width:0.80000001;stroke-linecap:butt;stroke-linejoin:miter;stroke-miterlimit:4;stroke-dasharray:none;stroke-opacity:1"
         d="m 115.35938,-30.875 0,-6.464844 15.08593,15.085938 -15.08593,15.089844 0,-6.46875 -17.246099,0 0,-17.242188 z m 0,0"
         transform="scale(1,-1)"
         id="path52"
         inkscape:connector-curvature="0" />
    </g>
    <path
       style="fill:#ffcab0;fill-opacity:1;fill-rule:nonzero;stroke:none"
       d="m 137.125,5.429688 c 6.8209,0 15.08315,3.207031 18.49361,8.414062 3.41488,5.203125 3.41488,11.617188 0,16.820312 -3.41046,5.207032 -11.67271,8.410157 -18.49361,8.410157 z m 0,0"
       id="path54"
       inkscape:connector-curvature="0" />
    <g
       clip-path="url(#clip3)"
       id="g56"
       transform="matrix(1.1412284,0,0,0.99827542,-19.336878,0.03837638)"
       style="clip-rule:nonzero;stroke-width:0.7495119;stroke-miterlimit:4;stroke-dasharray:none">
      <path
         style="fill:none;stroke:#000000;stroke-width:0.7495119;stroke-linecap:butt;stroke-linejoin:miter;stroke-miterlimit:4;stroke-dasharray:none;stroke-opacity:1"
         d="m -5.429688,137.125 c 0,6.00781 -3.207031,13.28516 -8.414062,16.28906 -5.203125,3.00781 -11.617188,3.00781 -16.820312,0 -5.207032,-3.0039 -8.410157,-10.28125 -8.410157,-16.28906 z m 0,0"
         transform="matrix(0,-1,1,0,0,0)"
         id="path58"
         inkscape:connector-curvature="0" />
    </g>
    <g
       clip-path="url(#clip4)"
       id="g60"
       transform="translate(2.3425258,0)"
       style="clip-rule:nonzero;stroke-width:0.80000001;stroke-miterlimit:4;stroke-dasharray:none">
      <path
         style="fill:none;stroke:#000000;stroke-width:0.80000001;stroke-linecap:butt;stroke-linejoin:miter;stroke-miterlimit:4;stroke-dasharray:none;stroke-opacity:1"
         d="m 155.87891,-22.253906 c 6.46875,0 2.15625,10.777344 6.46875,10.777344 4.30859,0 0,-21.554688 4.30859,-21.554688 4.3125,0 0,10.777344 6.46875,10.777344"
         transform="scale(1,-1)"
         id="path62"
         inkscape:connector-curvature="0" />
    </g>
    <g
       clip-path="url(#clip5)"
       id="g64"
       style="clip-rule:nonzero">
      <path
         style="fill:#000000;fill-opacity:1;fill-rule:nonzero;stroke:none"
         d="m 22.664062,21.957031 c 0.265626,-1.28125 -0.3125,-2.4375 -1.515624,-2.4375 -1.15625,0 -2.203126,1.09375 -2.453126,2.3125 -0.21875,0.984375 -0.34375,1.96875 -0.640624,2.953125 -0.140626,0.53125 -0.359376,1.078125 -0.59375,1.609375 l 0.625,0 c 0.21875,-0.484375 0.390624,-0.96875 0.53125,-1.453125 l 0.296874,-1.390625 c 0.3125,0.390625 0.796876,0.640625 1.375,0.640625 1.109376,0 2.125,-1.0625 2.375,-2.234375 z m -0.5625,-0.125 c -0.21875,1.015625 -0.90625,2.015625 -1.8125,2.015625 -0.53125,0 -1.015624,-0.203125 -1.328124,-0.546875 l 0.296874,-1.34375 c 0.21875,-1.0625 0.953126,-2.09375 1.890626,-2.09375 0.890624,0 1.15625,0.96875 0.953124,1.96875 z m 0,0"
         id="path66"
         inkscape:connector-curvature="0" />
    </g>
    <path
       style="fill:#000000;fill-opacity:1;fill-rule:nonzero;stroke:none"
       d="m 60.847656,24.097656 -2.53125,-6.984375 -0.640625,0 -2.578125,6.984375 0.359375,0 2.390625,-6.484375 2.359375,6.484375 z m 0,0"
       id="path68"
       inkscape:connector-curvature="0" />
    <g
       clip-path="url(#clip6)"
       id="g70"
       style="clip-rule:nonzero">
      <path
         style="fill:#000000;fill-opacity:1;fill-rule:nonzero;stroke:none"
         d="m 64.785156,23.199219 c 0.265625,-1.25 0.09375,-2.546875 -1,-2.546875 -1.0625,0 -1.75,1.28125 -2,2.515625 -0.265625,1.21875 -0.07813,2.484375 1,2.484375 1.046875,0 1.75,-1.25 2,-2.453125 z m -0.375,-0.125 -2.203125,0 c 0.234375,-1.078125 0.671875,-2.1875 1.59375,-2.1875 0.890625,0 0.8125,1.125 0.609375,2.1875 z m -0.04687,0.21875 c -0.234375,1.03125 -0.6875,2.109375 -1.578125,2.109375 -0.875,0 -0.828125,-1.09375 -0.625,-2.109375 z m 0,0"
         id="path72"
         inkscape:connector-curvature="0" />
    </g>
    <path
       style="fill:#000000;fill-opacity:1;fill-rule:nonzero;stroke:none"
       d="m 69.894531,19.988281 c 0,-0.203125 -0.171875,-0.375 -0.359375,-0.375 -0.203125,0 -0.375,0.171875 -0.375,0.375 0,0.1875 0.171875,0.359375 0.375,0.359375 0.1875,0 0.359375,-0.171875 0.359375,-0.359375 z m 0,3.734375 c 0,-0.1875 -0.171875,-0.359375 -0.359375,-0.359375 -0.203125,0 -0.375,0.171875 -0.375,0.359375 0,0.203125 0.171875,0.375 0.375,0.375 0.1875,0 0.359375,-0.171875 0.359375,-0.375 z m 0,0"
       id="path74"
       inkscape:connector-curvature="0" />
    <g
       clip-path="url(#clip7)"
       id="g76"
       style="clip-rule:nonzero">
      <path
         style="fill:#000000;fill-opacity:1;fill-rule:nonzero;stroke:none"
         d="m 78.742188,21.957031 c 0.265624,-1.28125 -0.3125,-2.4375 -1.515626,-2.4375 -1.15625,0 -2.203124,1.09375 -2.453124,2.3125 -0.21875,0.984375 -0.34375,1.96875 -0.640626,2.953125 -0.140624,0.53125 -0.359374,1.078125 -0.59375,1.609375 l 0.625,0 c 0.21875,-0.484375 0.390626,-0.96875 0.53125,-1.453125 l 0.296876,-1.390625 c 0.3125,0.390625 0.796874,0.640625 1.375,0.640625 1.109374,0 2.125,-1.0625 2.375,-2.234375 z m -0.5625,-0.125 c -0.21875,1.015625 -0.90625,2.015625 -1.8125,2.015625 -0.53125,0 -1.015626,-0.203125 -1.328126,-0.546875 l 0.296876,-1.34375 c 0.21875,-1.0625 0.953124,-2.09375 1.890624,-2.09375 0.890626,0 1.15625,0.96875 0.953126,1.96875 z m 0,0"
         id="path78"
         inkscape:connector-curvature="0" />
    </g>
    <g
       clip-path="url(#clip8)"
       id="g80"
       style="clip-rule:nonzero">
      <path
         style="fill:#000000;fill-opacity:1;fill-rule:nonzero;stroke:none"
         d="m 113.16016,21.957031 c 0.26562,-1.28125 -0.3125,-2.4375 -1.51563,-2.4375 -1.15625,0 -2.20312,1.09375 -2.45312,2.3125 -0.21875,0.984375 -0.34375,1.96875 -0.64063,2.953125 -0.14062,0.53125 -0.35937,1.078125 -0.59375,1.609375 l 0.625,0 c 0.21875,-0.484375 0.39063,-0.96875 0.53125,-1.453125 l 0.29688,-1.390625 c 0.3125,0.390625 0.79687,0.640625 1.375,0.640625 1.10937,0 2.125,-1.0625 2.375,-2.234375 z m -0.5625,-0.125 c -0.21875,1.015625 -0.90625,2.015625 -1.8125,2.015625 -0.53125,0 -1.01563,-0.203125 -1.32813,-0.546875 l 0.29688,-1.34375 c 0.21875,-1.0625 0.95312,-2.09375 1.89062,-2.09375 0.89063,0 1.15625,0.96875 0.95313,1.96875 z m 0,0"
         id="path82"
         inkscape:connector-curvature="0" />
    </g>
    <g
       clip-path="url(#clip9)"
       id="g84"
       style="clip-rule:nonzero">
      <path
         style="fill:#000000;fill-opacity:1;fill-rule:nonzero;stroke:none"
         d="m 117.125,23.199219 c 0.26563,-1.25 0.0937,-2.546875 -1,-2.546875 -1.0625,0 -1.75,1.28125 -2,2.515625 -0.26562,1.21875 -0.0781,2.484375 1,2.484375 1.04688,0 1.75,-1.25 2,-2.453125 z m -0.375,-0.125 -2.20312,0 c 0.23437,-1.078125 0.67187,-2.1875 1.59375,-2.1875 0.89062,0 0.8125,1.125 0.60937,2.1875 z m -0.0469,0.21875 c -0.23438,1.03125 -0.6875,2.109375 -1.57813,2.109375 -0.875,0 -0.82812,-1.09375 -0.625,-2.109375 z m 0,0"
         id="path86"
         inkscape:connector-curvature="0" />
    </g>
    <g
       clip-path="url(#clip10)"
       id="g88"
       transform="translate(1.0980306,0)"
       style="clip-rule:nonzero">
      <path
         style="fill:#000000;fill-opacity:1;fill-rule:nonzero;stroke:none"
         d="m 141.00781,16.613281 -0.4375,0 -1.9375,4.953125 1.96875,5.03125 0.375,0 -1.92187,-4.953125 z m 0,0"
         id="path90"
         inkscape:connector-curvature="0" />
    </g>
    <path
       style="fill:#000000;fill-opacity:1;fill-rule:nonzero;stroke:none"
       d="m 150.7699,24.097656 1.14063,-6.984375 -0.48438,0 -4.1875,6.1875 -1.5625,-6.1875 -0.48437,0 -1.82813,6.984375 0.34375,0 1.5625,-5.96875 1.51563,5.96875 0.29687,0 4.07813,-6.015625 -0.98438,6.015625 z m 0,0"
       id="path92"
       inkscape:connector-curvature="0" />
    <g
       clip-path="url(#clip11)"
       id="g94"
       transform="translate(1.0980306,0)"
       style="clip-rule:nonzero">
      <path
         style="fill:#000000;fill-opacity:1;fill-rule:nonzero;stroke:none"
         d="m 154.21094,21.644531 -1.95313,-5.03125 -0.39062,0 1.9375,4.953125 -1.96875,5.03125 0.45312,0 z m 0,0"
         id="path96"
         inkscape:connector-curvature="0" />
    </g>
  </g>
</svg>
