<?xml version="1.0" encoding="UTF-8" standalone="no"?>
<!-- Created with Inkscape (http://www.inkscape.org/) -->

<svg
   xmlns:dc="http://purl.org/dc/elements/1.1/"
   xmlns:cc="http://creativecommons.org/ns#"
   xmlns:rdf="http://www.w3.org/1999/02/22-rdf-syntax-ns#"
   xmlns:svg="http://www.w3.org/2000/svg"
   xmlns="http://www.w3.org/2000/svg"
   xmlns:xlink="http://www.w3.org/1999/xlink"
   xmlns:sodipodi="http://sodipodi.sourceforge.net/DTD/sodipodi-0.dtd"
   xmlns:inkscape="http://www.inkscape.org/namespaces/inkscape"
   width="144.12968pt"
   height="102.07138pt"
   viewBox="0 0 180.16211 127.58923"
   id="svg2"
   version="1.1"
   inkscape:version="0.91 r13725"
   sodipodi:docname="IN_ssqueezed_under_magnetic.svg">
  <defs
     id="defs4">
    <marker
       inkscape:stockid="Arrow2Mend"
       orient="auto"
       refY="0"
       refX="0"
       id="marker14678"
       style="overflow:visible"
       inkscape:isstock="true">
      <path
         inkscape:connector-curvature="0"
         id="path14680"
         style="fill:#000000;fill-opacity:1;fill-rule:evenodd;stroke:#000000;stroke-width:0.625;stroke-linejoin:round;stroke-opacity:1"
         d="M 8.7185878,4.0337352 -2.2072895,0.01601326 8.7185884,-4.0017078 c -1.7454984,2.3720609 -1.7354408,5.6174519 -6e-7,8.035443 z"
         transform="scale(-0.6,-0.6)" />
    </marker>
    <marker
       inkscape:stockid="Arrow2Mend"
       orient="auto"
       refY="0"
       refX="0"
       id="marker13339"
       style="overflow:visible"
       inkscape:isstock="true">
      <path
         inkscape:connector-curvature="0"
         id="path13341"
         style="fill:#000000;fill-opacity:1;fill-rule:evenodd;stroke:#000000;stroke-width:0.625;stroke-linejoin:round;stroke-opacity:1"
         d="M 8.7185878,4.0337352 -2.2072895,0.01601326 8.7185884,-4.0017078 c -1.7454984,2.3720609 -1.7354408,5.6174519 -6e-7,8.035443 z"
         transform="scale(-0.6,-0.6)" />
    </marker>
    <marker
       inkscape:stockid="Arrow1Mstart"
       orient="auto"
       refY="0"
       refX="0"
       id="Arrow1Mstart"
       style="overflow:visible"
       inkscape:isstock="true">
      <path
         id="path4160"
         d="M 0,0 5,-5 -12.5,0 5,5 0,0 Z"
         style="fill:#49a028;fill-opacity:1;fill-rule:evenodd;stroke:#49a028;stroke-width:1pt;stroke-opacity:1"
         transform="matrix(0.4,0,0,0.4,4,0)"
         inkscape:connector-curvature="0" />
    </marker>
    <marker
       inkscape:stockid="Arrow1Lend"
       orient="auto"
       refY="0"
       refX="0"
       id="Arrow1Lend"
       style="overflow:visible"
       inkscape:isstock="true">
      <path
         id="path4157"
         d="M 0,0 5,-5 -12.5,0 5,5 0,0 Z"
         style="fill:#000000;fill-opacity:1;fill-rule:evenodd;stroke:#000000;stroke-width:1pt;stroke-opacity:1"
         transform="matrix(-0.8,0,0,-0.8,-10,0)"
         inkscape:connector-curvature="0" />
    </marker>
    <marker
       inkscape:isstock="true"
       style="overflow:visible"
       id="marker8777"
       refX="0"
       refY="0"
       orient="auto"
       inkscape:stockid="Arrow1Send">
      <path
         transform="matrix(-0.2,0,0,-0.2,-1.2,0)"
         style="fill:#49a028;fill-opacity:1;fill-rule:evenodd;stroke:#49a028;stroke-width:1pt;stroke-opacity:1"
         d="M 0,0 5,-5 -12.5,0 5,5 0,0 Z"
         id="path8779"
         inkscape:connector-curvature="0" />
    </marker>
    <marker
       inkscape:isstock="true"
       style="overflow:visible"
       id="marker6453"
       refX="0"
       refY="0"
       orient="auto"
       inkscape:stockid="Arrow1Send">
      <path
         transform="matrix(-0.2,0,0,-0.2,-1.2,0)"
         style="fill:#fa5a00;fill-opacity:1;fill-rule:evenodd;stroke:#fa5a00;stroke-width:1pt;stroke-opacity:1"
         d="M 0,0 5,-5 -12.5,0 5,5 0,0 Z"
         id="path6455"
         inkscape:connector-curvature="0" />
    </marker>
    <marker
       inkscape:isstock="true"
       style="overflow:visible"
       id="marker6183"
       refX="0"
       refY="0"
       orient="auto"
       inkscape:stockid="Arrow2Mend"
       inkscape:collect="always">
      <path
         transform="scale(-0.6,-0.6)"
         d="M 8.7185878,4.0337352 -2.2072895,0.01601326 8.7185884,-4.0017078 c -1.7454984,2.3720609 -1.7354408,5.6174519 -6e-7,8.035443 z"
         style="fill:#000000;fill-opacity:1;fill-rule:evenodd;stroke:#000000;stroke-width:0.625;stroke-linejoin:round;stroke-opacity:1"
         id="path6185"
         inkscape:connector-curvature="0" />
    </marker>
    <marker
       inkscape:isstock="true"
       style="overflow:visible"
       id="marker6173"
       refX="0"
       refY="0"
       orient="auto"
       inkscape:stockid="Arrow2Mend">
      <path
         transform="scale(-0.6,-0.6)"
         d="M 8.7185878,4.0337352 -2.2072895,0.01601326 8.7185884,-4.0017078 c -1.7454984,2.3720609 -1.7354408,5.6174519 -6e-7,8.035443 z"
         style="fill:#000000;fill-opacity:1;fill-rule:evenodd;stroke:#000000;stroke-width:0.625;stroke-linejoin:round;stroke-opacity:1"
         id="path6175"
         inkscape:connector-curvature="0" />
    </marker>
    <marker
       inkscape:stockid="Arrow2Mend"
       orient="auto"
       refY="0"
       refX="0"
       id="marker6109"
       style="overflow:visible"
       inkscape:isstock="true"
       inkscape:collect="always">
      <path
         id="path6111"
         style="fill:#000000;fill-opacity:1;fill-rule:evenodd;stroke:#000000;stroke-width:0.625;stroke-linejoin:round;stroke-opacity:1"
         d="M 8.7185878,4.0337352 -2.2072895,0.01601326 8.7185884,-4.0017078 c -1.7454984,2.3720609 -1.7354408,5.6174519 -6e-7,8.035443 z"
         transform="scale(-0.6,-0.6)"
         inkscape:connector-curvature="0" />
    </marker>
    <marker
       inkscape:isstock="true"
       style="overflow:visible"
       id="marker6079"
       refX="0"
       refY="0"
       orient="auto"
       inkscape:stockid="Arrow2Lend">
      <path
         transform="matrix(-1.1,0,0,-1.1,-1.1,0)"
         d="M 8.7185878,4.0337352 -2.2072895,0.01601326 8.7185884,-4.0017078 c -1.7454984,2.3720609 -1.7354408,5.6174519 -6e-7,8.035443 z"
         style="fill:#000000;fill-opacity:1;fill-rule:evenodd;stroke:#000000;stroke-width:0.625;stroke-linejoin:round;stroke-opacity:1"
         id="path6081"
         inkscape:connector-curvature="0" />
    </marker>
    <marker
       inkscape:isstock="true"
       style="overflow:visible"
       id="marker6027"
       refX="0"
       refY="0"
       orient="auto"
       inkscape:stockid="Arrow2Lend">
      <path
         transform="matrix(-1.1,0,0,-1.1,-1.1,0)"
         d="M 8.7185878,4.0337352 -2.2072895,0.01601326 8.7185884,-4.0017078 c -1.7454984,2.3720609 -1.7354408,5.6174519 -6e-7,8.035443 z"
         style="fill:#000000;fill-opacity:1;fill-rule:evenodd;stroke:#000000;stroke-width:0.625;stroke-linejoin:round;stroke-opacity:1"
         id="path6029"
         inkscape:connector-curvature="0" />
    </marker>
    <marker
       inkscape:stockid="Arrow1Send"
       orient="auto"
       refY="0"
       refX="0"
       id="marker5863"
       style="overflow:visible"
       inkscape:isstock="true">
      <path
         id="path5865"
         d="M 0,0 5,-5 -12.5,0 5,5 0,0 Z"
         style="fill:#000000;fill-opacity:1;fill-rule:evenodd;stroke:#000000;stroke-width:1pt;stroke-opacity:1"
         transform="matrix(-0.2,0,0,-0.2,-1.2,0)"
         inkscape:connector-curvature="0" />
    </marker>
    <marker
       inkscape:stockid="Arrow1Send"
       orient="auto"
       refY="0"
       refX="0"
       id="marker5747"
       style="overflow:visible"
       inkscape:isstock="true"
       inkscape:collect="always">
      <path
         id="path5749"
         d="M 0,0 5,-5 -12.5,0 5,5 0,0 Z"
         style="fill:#fa5a00;fill-opacity:1;fill-rule:evenodd;stroke:#fa5a00;stroke-width:1pt;stroke-opacity:1"
         transform="matrix(-0.2,0,0,-0.2,-1.2,0)"
         inkscape:connector-curvature="0" />
    </marker>
    <marker
       inkscape:stockid="Arrow2Mend"
       orient="auto"
       refY="0"
       refX="0"
       id="Arrow2Mend"
       style="overflow:visible"
       inkscape:isstock="true">
      <path
         id="path4181"
         style="fill:#c84800;fill-opacity:1;fill-rule:evenodd;stroke:#c84800;stroke-width:0.625;stroke-linejoin:round;stroke-opacity:1"
         d="M 8.7185878,4.0337352 -2.2072895,0.01601326 8.7185884,-4.0017078 c -1.7454984,2.3720609 -1.7354408,5.6174519 -6e-7,8.035443 z"
         transform="scale(-0.6,-0.6)"
         inkscape:connector-curvature="0" />
    </marker>
    <marker
       inkscape:stockid="Arrow2Lend"
       orient="auto"
       refY="0"
       refX="0"
       id="Arrow2Lend"
       style="overflow:visible"
       inkscape:isstock="true">
      <path
         id="path4175"
         style="fill:#ffcdb1;fill-opacity:1;fill-rule:evenodd;stroke:#ffcdb1;stroke-width:0.625;stroke-linejoin:round;stroke-opacity:1"
         d="M 8.7185878,4.0337352 -2.2072895,0.01601326 8.7185884,-4.0017078 c -1.7454984,2.3720609 -1.7354408,5.6174519 -6e-7,8.035443 z"
         transform="matrix(-1.1,0,0,-1.1,-1.1,0)"
         inkscape:connector-curvature="0" />
    </marker>
    <g
       id="g13695">
      <symbol
         id="glyph0-0"
         overflow="visible"
         style="overflow:visible">
        <path
           id="path13698"
           d=""
           style="stroke:none"
           inkscape:connector-curvature="0" />
      </symbol>
      <symbol
         id="glyph0-1"
         overflow="visible"
         style="overflow:visible">
        <path
           id="path13701"
           d="M 6.328125,-1.859375 C 6.5625,-2.9375 5.96875,-3.5 4.96875,-3.703125 c 0.875,-0.21875 1.546875,-0.71875 1.734375,-1.625 0.25,-1.21875 -0.671875,-1.734375 -2.03125,-1.734375 -0.5625,0 -1.125,0.03125 -1.703125,0.078125 l -0.578125,0 L 0.90625,0 1.484375,0 3.15625,0.078125 c 1.546875,0 2.875,-0.546875 3.171875,-1.9375 z M 6.09375,-5.328125 C 5.859375,-4.203125 4.421875,-3.75 3.125,-3.75 L 2.328125,-3.734375 2.9375,-6.640625 C 3.5,-6.6875 4.046875,-6.71875 4.609375,-6.71875 c 0.90625,0 1.65625,0.546875 1.484375,1.390625 z m -0.515625,3.46875 c -0.203125,0.96875 -1.3125,1.59375 -2.34375,1.59375 -0.546875,0 -1.09375,-0.03125 -1.640625,-0.078125 l 0.671875,-3.140625 1.21875,0 c 1.21875,0 2.328125,0.546875 2.09375,1.625 z m 0,0"
           style="stroke:none"
           inkscape:connector-curvature="0" />
      </symbol>
      <symbol
         id="glyph0-2"
         overflow="visible"
         style="overflow:visible">
        <path
           id="path13704"
           d="m 3.796875,0 -1.0625,-2.359375 1.984375,-2.125 -0.390625,0 -1.71875,1.84375 -0.828125,-1.84375 -0.640625,0 1.03125,2.265625 L 0.109375,0 0.515625,0 2.296875,-1.9375 3.1875,0 Z m 0,0"
           style="stroke:none"
           inkscape:connector-curvature="0" />
      </symbol>
      <symbol
         id="glyph0-3"
         overflow="visible"
         style="overflow:visible">
        <path
           id="path13707"
           d="m 3.984375,0.578125 1.078125,-5.0625 -0.59375,0 -0.78125,3.703125 c -0.453125,0.296875 -0.96875,0.515625 -1.46875,0.515625 -0.515625,0 -0.8125,-0.46875 -0.6875,-1 l 0.671875,-3.21875 -0.59375,0 -0.6875,3.21875 C 0.78125,-0.53125 1.21875,0.078125 1.9375,0.078125 c 0.578125,0 1.171875,-0.265625 1.703125,-0.625 l -0.234375,1.125 C 3.234375,1.3125 2.765625,2.03125 2.125,2.03125 c -0.5,0 -0.96875,-0.09375 -1.40625,-0.25 L 0.671875,2 c 0.46875,0.234375 1,0.375 1.578125,0.375 0.84375,0 1.546875,-0.875 1.734375,-1.796875 z m 0,0"
           style="stroke:none"
           inkscape:connector-curvature="0" />
      </symbol>
      <symbol
         id="glyph0-4"
         overflow="visible"
         style="overflow:visible">
        <path
           id="path13710"
           d="m 3.65625,0 0.078125,-0.3125 -2.796875,0 3.625,-3.875 0.046875,-0.296875 -3.359375,0 -0.078125,0.3125 2.71875,0 -3.609375,3.875 L 0.203125,0 Z m 0,0"
           style="stroke:none"
           inkscape:connector-curvature="0" />
      </symbol>
      <symbol
         id="glyph0-5"
         overflow="visible"
         style="overflow:visible">
        <path
           id="path13713"
           d="m 5.28125,-2.140625 c 0.265625,-1.28125 -0.3125,-2.4375 -1.515625,-2.4375 -1.15625,0 -2.203125,1.09375 -2.453125,2.3125 C 1.09375,-1.28125 0.96875,-0.296875 0.671875,0.6875 0.53125,1.21875 0.3125,1.765625 0.078125,2.296875 l 0.625,0 C 0.921875,1.8125 1.09375,1.328125 1.234375,0.84375 L 1.53125,-0.546875 c 0.3125,0.390625 0.796875,0.640625 1.375,0.640625 1.109375,0 2.125,-1.0625 2.375,-2.234375 z m -0.5625,-0.125 C 4.5,-1.25 3.8125,-0.25 2.90625,-0.25 2.375,-0.25 1.890625,-0.453125 1.578125,-0.796875 L 1.875,-2.140625 c 0.21875,-1.0625 0.953125,-2.09375 1.890625,-2.09375 0.890625,0 1.15625,0.96875 0.953125,1.96875 z m 0,0"
           style="stroke:none"
           inkscape:connector-curvature="0" />
      </symbol>
      <symbol
         id="glyph1-0"
         overflow="visible"
         style="overflow:visible">
        <path
           id="path13716"
           d=""
           style="stroke:none"
           inkscape:connector-curvature="0" />
      </symbol>
      <symbol
         id="glyph1-1"
         overflow="visible"
         style="overflow:visible">
        <path
           id="path13719"
           d="m 1.78125,-0.21875 0,-0.15625 c -0.15625,0.109375 -0.328125,0.1875 -0.515625,0.1875 -0.296875,0 -0.34375,-0.359375 -0.34375,-0.703125 l 0,-2.25 -0.40625,0 0,2.25 c 0,0.46875 0.171875,0.953125 0.578125,0.953125 0.25,0 0.484375,-0.125 0.6875,-0.28125 z m -0.796875,-4 c 0,-0.140625 -0.125,-0.25 -0.265625,-0.25 -0.140625,0 -0.25,0.109375 -0.25,0.25 0,0.140625 0.109375,0.265625 0.25,0.265625 0.140625,0 0.265625,-0.125 0.265625,-0.265625 z m 0,0"
           style="stroke:none"
           inkscape:connector-curvature="0" />
      </symbol>
      <symbol
         id="glyph1-2"
         overflow="visible"
         style="overflow:visible">
        <path
           id="path13722"
           d="m 1.953125,-4.515625 0,-0.140625 C 1.734375,-4.828125 1.484375,-4.9375 1.21875,-4.9375 0.8125,-4.9375 0.625,-4.453125 0.625,-4 l 0,0.859375 -0.484375,0 0,0.234375 0.484375,0 0,2.90625 0.40625,0 0,-2.90625 0.484375,0 0,-0.234375 -0.484375,0 0,-0.859375 c 0,-0.328125 0.078125,-0.703125 0.375,-0.703125 0.1875,0 0.375,0.078125 0.546875,0.1875 z m 0,0"
           style="stroke:none"
           inkscape:connector-curvature="0" />
      </symbol>
    </g>
    <clipPath
       id="clip1">
      <path
         id="path13725"
         d="m 12,2 11,0 0,7.386719 -11,0 z m 0,0"
         inkscape:connector-curvature="0" />
    </clipPath>
    <clipPath
       id="clip2">
      <path
         id="path13728"
         d="m 22,2 7,0 0,7.386719 -7,0 z m 0,0"
         inkscape:connector-curvature="0" />
    </clipPath>
    <clipPath
       id="clip3">
      <path
         id="path13731"
         d="m 30,2 7,0 0,7.386719 -7,0 z m 0,0"
         inkscape:connector-curvature="0" />
    </clipPath>
  </defs>
  <sodipodi:namedview
     id="base"
     pagecolor="#ffffff"
     bordercolor="#666666"
     borderopacity="1.0"
     inkscape:pageopacity="0.0"
     inkscape:pageshadow="2"
     inkscape:zoom="3.5219608"
     inkscape:cx="28.124646"
     inkscape:cy="50.255627"
     inkscape:document-units="px"
     inkscape:current-layer="layer1"
     showgrid="false"
     inkscape:snap-object-midpoints="true"
     inkscape:snap-center="true"
     inkscape:snap-bbox="true"
     inkscape:snap-bbox-midpoints="true"
     inkscape:bbox-nodes="true"
     fit-margin-top="5"
     fit-margin-left="20"
     fit-margin-right="5"
     fit-margin-bottom="5"
     inkscape:window-width="1920"
     inkscape:window-height="1016"
     inkscape:window-x="0"
     inkscape:window-y="27"
     inkscape:window-maximized="1"
     inkscape:snap-global="false"
     units="pt" />
  <metadata
     id="metadata7">
    <rdf:RDF>
      <cc:Work
         rdf:about="">
        <dc:format>image/svg+xml</dc:format>
        <dc:type
           rdf:resource="http://purl.org/dc/dcmitype/StillImage" />
        <dc:title></dc:title>
      </cc:Work>
    </rdf:RDF>
  </metadata>
  <g
     inkscape:label="Layer 1"
     inkscape:groupmode="layer"
     id="layer1"
     transform="translate(-142.54558,-99.499871)">
    <ellipse
       style="opacity:1;fill:none;fill-opacity:1;fill-rule:nonzero;stroke:#000000;stroke-width:1.08121717;stroke-linecap:butt;stroke-linejoin:miter;stroke-miterlimit:4;stroke-dasharray:none;stroke-dashoffset:0;stroke-opacity:1;marker-start:"
       id="path4136"
       cx="246.7235"
       cy="175.50879"
       rx="69.193588"
       ry="28.717443" />
    <path
       style="fill:none;fill-rule:evenodd;stroke:#000000;stroke-width:1.08121717;stroke-linecap:butt;stroke-linejoin:miter;stroke-miterlimit:4;stroke-dasharray:none;stroke-opacity:1;marker-end:url(#marker6183);marker-start:"
       d="m 246.54466,176.01909 -68.87443,24.16608"
       id="path4138"
       inkscape:connector-curvature="0" />
    <path
       inkscape:connector-curvature="0"
       id="path4146"
       d="m 247.30953,175.31531 -49.00807,17.19558"
       style="fill:none;fill-rule:evenodd;stroke:#fa5a00;stroke-width:2.573174;stroke-linecap:round;stroke-linejoin:miter;stroke-miterlimit:4;stroke-dasharray:none;stroke-opacity:1;marker-end:url(#marker5747);marker-start:"
       inkscape:transform-center-x="23.918159"
       inkscape:transform-center-y="8.4041221" />
    <ellipse
       style="opacity:1;fill:none;fill-opacity:1;fill-rule:nonzero;stroke:#0081c8;stroke-width:1.09559679;stroke-linecap:butt;stroke-linejoin:miter;stroke-miterlimit:4;stroke-dasharray:1.09559677, 1.09559677000000000;stroke-dashoffset:0;stroke-opacity:1;marker-start:"
       id="path4148"
       cx="194.52245"
       cy="194.62291"
       rx="6.953064"
       ry="19.205477"
       inkscape:transform-center-x="-0.1008699"
       inkscape:transform-center-y="0.27365016" />
    <path
       inkscape:connector-curvature="0"
       id="path14676"
       d="M 246.54466,174.99885 177.67023,150.83277"
       style="fill:none;fill-rule:evenodd;stroke:#000000;stroke-width:1.08121717;stroke-linecap:butt;stroke-linejoin:miter;stroke-miterlimit:4;stroke-dasharray:none;stroke-opacity:1;marker-end:url(#marker14678);marker-start:"
       inkscape:transform-center-x="34.61605"
       inkscape:transform-center-y="-12.593337" />
    <path
       style="fill:none;fill-rule:evenodd;stroke:#000000;stroke-width:1.08121717;stroke-linecap:butt;stroke-linejoin:miter;stroke-miterlimit:4;stroke-dasharray:none;stroke-opacity:1;marker-end:url(#marker6109);marker-start:"
       d="m 247.18257,175.5086 0,-67.79626"
       id="path4144"
       inkscape:connector-curvature="0" />
    <path
       style="fill:none;fill-rule:evenodd;stroke:#49a028;stroke-width:3.78425717;stroke-linecap:round;stroke-linejoin:miter;stroke-miterlimit:4;stroke-dasharray:none;stroke-opacity:1;marker-end:url(#marker8777);marker-start:"
       d="m 247.30953,175.31531 -0.11391,-49.73672"
       id="path8775"
       inkscape:connector-curvature="0"
       sodipodi:nodetypes="cc" />
    <path
       style="fill:none;fill-rule:evenodd;stroke:#fa5a00;stroke-width:2.57300043;stroke-linecap:round;stroke-linejoin:miter;stroke-miterlimit:4;stroke-dasharray:2.57300033, 5.14600068000000022;stroke-dashoffset:3.34490037;stroke-opacity:1;marker-end:url(#marker6453);marker-start:"
       d="m 247.30953,175.31531 -35.03886,21.83"
       id="path6451"
       inkscape:connector-curvature="0"
       sodipodi:nodetypes="cc" />
    <ellipse
       ry="19.708088"
       rx="8.8659973"
       cy="200.61501"
       cx="209.4709"
       id="ellipse7399"
       style="opacity:1;fill:none;fill-opacity:1;fill-rule:nonzero;stroke:#0081c8;stroke-width:1.03202748;stroke-linecap:butt;stroke-linejoin:miter;stroke-miterlimit:4;stroke-dasharray:1.03202754, 1.03202754000000008;stroke-dashoffset:0;stroke-opacity:1;marker-start:"
       inkscape:transform-center-x="-0.96551027"
       inkscape:transform-center-y="0.0082088305" />
    <path
       id="ellipse11091"
       style="opacity:1;fill:none;fill-opacity:1;fill-rule:nonzero;stroke:#49a028;stroke-width:1.08121717;stroke-linecap:butt;stroke-linejoin:miter;stroke-miterlimit:4;stroke-dasharray:1.08121531, 1.08121531;stroke-dashoffset:8.22390652;stroke-opacity:1;marker-start:url(#Arrow1Mstart)"
       sodipodi:type="arc"
       sodipodi:cx="246.59196"
       sodipodi:cy="129.59406"
       sodipodi:rx="33.607853"
       sodipodi:ry="13.948268"
       sodipodi:start="5.9752953"
       sodipodi:end="5.1798967"
       sodipodi:open="true"
       d="m 278.61941,125.36705 a 33.607853,13.948268 0 0 1 -15.71657,16.42242 33.607853,13.948268 0 0 1 -41.89417,-3.15021 33.607853,13.948268 0 0 1 -0.83512,-17.667 33.607853,13.948268 0 0 1 41.56423,-3.82974" />
    <use
       transform="matrix(1.25,0,0,1.25,254.41521,124.21662)"
       id="use13736"
       y="7.0139999"
       x="0"
       xlink:href="#glyph0-1"
       width="100%"
       height="100%"
       style="fill:#000000;fill-opacity:1" />
    <use
       transform="matrix(1.25,0,0,1.25,158.64177,143.93012)"
       id="use13740"
       y="7.0139999"
       x="7.01367"
       xlink:href="#glyph0-2"
       width="100%"
       height="100%"
       style="fill:#000000;fill-opacity:1" />
    <use
       transform="matrix(1.25,0,0,1.25,152.12235,192.67057)"
       style="clip-rule:nonzero;fill:#000000;fill-opacity:1"
       height="100%"
       width="100%"
       xlink:href="#glyph0-3"
       x="12.004933"
       y="7.0139999"
       id="use13746" />
    <use
       transform="matrix(1.25,0,0,1.25,212.27391,102.58784)"
       style="clip-rule:nonzero;fill:#000000;fill-opacity:1"
       height="100%"
       width="100%"
       xlink:href="#glyph0-4"
       x="17.793203"
       y="7.0139999"
       id="use13748" />
    <g
       transform="matrix(1.25,0,0,1.25,176.95825,167.369)"
       style="clip-rule:nonzero"
       clip-path="url(#clip2)"
       id="g13750">
      <g
         style="fill:#000000;fill-opacity:1"
         id="g13752">
        <use
           height="100%"
           width="100%"
           xlink:href="#glyph0-5"
           x="22.684839"
           y="7.0139999"
           id="use13754" />
      </g>
    </g>
    <g
       transform="matrix(1.25,0,0,1.25,176.95825,167.369)"
       style="fill:#000000;fill-opacity:1"
       id="g13756">
      <use
         height="100%"
         width="100%"
         xlink:href="#glyph1-1"
         x="28.084999"
         y="8.5080004"
         id="use13758" />
    </g>
    <g
       transform="matrix(1.25,0,0,1.25,201.17325,183.66756)"
       style="clip-rule:nonzero"
       clip-path="url(#clip3)"
       id="g13760">
      <g
         style="fill:#000000;fill-opacity:1"
         id="g13762" />
    </g>
    <g
       id="g15489"
       transform="translate(-8.0000008,2.0000001)">
      <use
         id="use13764"
         y="7.0139999"
         x="30.500999"
         xlink:href="#glyph0-5"
         width="100%"
         height="100%"
         style="clip-rule:nonzero;fill:#000000;fill-opacity:1"
         transform="matrix(1.25,0,0,1.25,201.17325,183.66756)" />
      <g
         id="g13766"
         style="fill:#000000;fill-opacity:1"
         transform="matrix(1.25,0,0,1.25,201.17325,183.66756)">
        <use
           id="use13768"
           y="8.5080004"
           x="35.900002"
           xlink:href="#glyph1-2"
           width="100%"
           height="100%" />
      </g>
    </g>
  </g>
</svg>
